Team1,MP1,Team2,MP2,class
2136,97,1853,13,1
1850,49,1645,20,1
2044,56,1908,43,-1
1869,29,1742,10,1
1928,13,1646,6,1
1894,47,1750,10,-1
1948,59,1891,80,-1
1666,14,1602,6,-1
1890,29,1747,7,1
1987,54,1590,6,1
1986,70,1745,0,1
2077,99,1970,23,1
1789,9,1681,14,0
1764,29,1645,9,1
1933,36,1508,9,1
2136,97,1850,49,0
1729,28,1678,37,0
1908,43,1742,10,1
2044,56,1869,29,-1
1853,27,1645,20,1
1928,13,1602,6,1
1948,59,1894,47,-1
1666,14,1646,6,0
1891,80,1750,10,-1
1987,54,1890,29,1
1747,7,1590,6,1
1986,70,1789,9,1
2077,99,1645,9,0
1745,0,1681,14,-1
1933,36,1678,37,1
1729,28,1508,9,-1
1970,23,1764,29,0
2044,56,1742,10,1
1908,43,1869,29,1
2136,97,1645,20,1
1853,13,1850,49,-1
1894,47,1891,80,1
1948,59,1750,10,0
1928,13,1666,14,1
1646,6,1602,6,1
1986,70,1681,14,1
1789,9,1745,0,-1
1890,29,1590,6,1
1987,54,1747,7,0
2077,99,1764,29,1
1970,23,1645,9,1
1933,36,1729,28,1
1678,37,1508,9,0
2136,97,1869,29,1
1928,13,1894,47,1
1908,43,1850,49,1
1750,10,1646,6,1
1987,54,1681,14,1
2077,99,1508,9,1
1986,70,1890,29,1
1933,36,1764,29,1
2077,99,1987,54,1
2136,97,1928,13,1
1986,70,1933,36,1
1908,43,1750,10,1
2136,97,2077,99,-1
1986,70,1908,43,1
2136,97,1908,43,-1
2077,99,1986,70,1