Team1,Participation1,Team2,Participation2,class
2136,19,1853,3,1
1850,14,1645,6,1
2044,13,1908,9,-1
1869,8,1742,7,1
1928,4,1646,2,1
1894,11,1750,3,-1
1948,13,1891,17,-1
1666,4,1602,2,-1
1890,9,1747,2,1
1987,13,1590,2,1
1986,15,1745,0,1
2077,17,1970,5,1
1789,3,1681,4,0
1764,9,1645,2,1
1933,11,1508,3,1
2136,19,1850,14,0
1729,8,1678,9,0
1908,9,1742,7,1
2044,13,1869,8,-1
1853,3,1645,6,1
1928,4,1602,2,1
1948,13,1894,11,-1
1666,4,1646,2,0
1891,17,1750,3,-1
1987,13,1890,9,1
1747,2,1590,2,1
1986,15,1789,3,1
2077,17,1645,2,0
1745,0,1681,4,-1
1933,11,1678,9,1
1729,8,1508,3,-1
1970,5,1764,9,0
2044,13,1742,7,1
1908,9,1869,8,1
2136,19,1645,6,1
1853,3,1850,14,-1
1894,11,1891,17,1
1948,13,1750,3,0
1928,4,1666,4,1
1646,2,1602,2,1
1986,15,1681,4,1
1789,3,1745,0,-1
1890,9,1590,2,1
1987,13,1747,2,0
2077,17,1764,9,1
1970,5,1645,2,1
1933,11,1729,8,1
1678,9,1508,3,0
2136,19,1869,8,1
1928,4,1894,11,1
1908,9,1850,14,1
1750,3,1646,2,1
1987,13,1681,4,1
2077,17,1508,3,1
1986,15,1890,9,1
1933,11,1764,9,1
2077,17,1987,13,1
2136,19,1928,4,1
1986,15,1933,11,1
1908,9,1750,3,1
2136,19,2077,17,-1
1986,15,1908,9,1
2136,19,1908,9,-1
2077,17,1986,15,1